^C:\PROGA2B\LAB1TEST\DEBUG\LAB1TEST.OBJ|C:\PROGA2B\LAB1TEST\DEBUG\STDAFX.OBJ
/OUT:"C:\PROGA2B\DEBUG\LAB1TEST.EXE" /INCREMENTAL /NOLOGO /LIBPATH:..\Debug /LIBPATH:"..\..\gtest-1.7.0\msvc\gtest\Debug" circlelib.lib gtestd.lib kernel32.lib user32.lib gdi32.lib winspool.lib comdlg32.lib advapi32.lib shell32.lib ole32.lib oleaut32.lib uuid.lib odbc32.lib odbccp32.lib /MANIFEST /MANIFESTUAC:"level='asInvoker' uiAccess='false'" /manifest:embed /DEBUG /PDB:"C:\PROGA2B\DEBUG\LAB1TEST.PDB" /SUBSYSTEM:CONSOLE /TLBID:1 /DYNAMICBASE /NXCOMPAT /IMPLIB:"C:\PROGA2B\DEBUG\LAB1TEST.LIB" /MACHINE:X86 DEBUG\LAB1TEST.OBJDEBUG\STDAFX.OBJ
^C:\PROGA2BPONEDELNIK\LAB1TEST\DEBUG\LAB1TEST.OBJ|C:\PROGA2BPONEDELNIK\LAB1TEST\DEBUG\STDAFX.OBJ
/OUT:"C:\PROGA2BPONEDELNIK\DEBUG\LAB1TEST.EXE" /INCREMENTAL /NOLOGO /LIBPATH:..\Debug /LIBPATH:"..\..\gtest-1.7.0\msvc\gtest\Debug" circlelib.lib gtestd.lib kernel32.lib user32.lib gdi32.lib winspool.lib comdlg32.lib advapi32.lib shell32.lib ole32.lib oleaut32.lib uuid.lib odbc32.lib odbccp32.lib /MANIFEST /MANIFESTUAC:"level='asInvoker' uiAccess='false'" /manifest:embed /DEBUG /PDB:"C:\PROGA2BPONEDELNIK\DEBUG\LAB1TEST.PDB" /SUBSYSTEM:CONSOLE /TLBID:1 /DYNAMICBASE /NXCOMPAT /IMPLIB:"C:\PROGA2BPONEDELNIK\DEBUG\LAB1TEST.LIB" /MACHINE:X86 DEBUG\LAB1TEST.OBJDEBUG\STDAFX.OBJ
^C:\USERS\DNSSHOP\DOCUMENTS\VISUAL STUDIO 2013\PROJECTS\PROGA 3\LAB1TEST\DEBUG\LAB1TEST.OBJ|C:\USERS\DNSSHOP\DOCUMENTS\VISUAL STUDIO 2013\PROJECTS\PROGA 3\LAB1TEST\DEBUG\STDAFX.OBJ
/OUT:"C:\USERS\DNSSHOP\DOCUMENTS\VISUAL STUDIO 2013\PROJECTS\PROGA 3\DEBUG\LAB1TEST.EXE" /INCREMENTAL /NOLOGO /LIBPATH:..\Debug /LIBPATH:"..\..\gtest-1.7.0\msvc\gtest\Debug" circlelib.lib gtestd.lib kernel32.lib user32.lib gdi32.lib winspool.lib comdlg32.lib advapi32.lib shell32.lib ole32.lib oleaut32.lib uuid.lib odbc32.lib odbccp32.lib /MANIFEST /MANIFESTUAC:"level='asInvoker' uiAccess='false'" /manifest:embed /DEBUG /PDB:"C:\USERS\DNSSHOP\DOCUMENTS\VISUAL STUDIO 2013\PROJECTS\PROGA 3\DEBUG\LAB1TEST.PDB" /SUBSYSTEM:CONSOLE /TLBID:1 /DYNAMICBASE /NXCOMPAT /IMPLIB:"C:\USERS\DNSSHOP\DOCUMENTS\VISUAL STUDIO 2013\PROJECTS\PROGA 3\DEBUG\LAB1TEST.LIB" /MACHINE:X86 DEBUG\LAB1TEST.OBJDEBUG\STDAFX.OBJ
