^C:\USERS\DNSSHOP\DOWNLOADS\ADYUMIN-LAB1-81F073FDDCCD (1)\ADYUMIN-LAB1-81F073FDDCCD\CIRCLELIB\STDAFX.CPP
/c /ZI /nologo /W3 /WX- /sdl /Od /Oy- /D WIN32 /D _DEBUG /D _LIB /D _UNICODE /D UNICODE /Gm /EHsc /RTC1 /MTd /GS /fp:precise /Zc:wchar_t /Zc:forScope /Yc"stdafx.h" /Fp"DEBUG\CIRCLELIB.PCH" /Fo"DEBUG\\" /Fd"DEBUG\VC120.PDB" /Gd /TP /analyze- C:\USERS\DNSSHOP\DOWNLOADS\ADYUMIN-LAB1-81F073FDDCCD (1)\ADYUMIN-LAB1-81F073FDDCCD\CIRCLELIB\STDAFX.CPP
^C:\USERS\DNSSHOP\DOWNLOADS\ADYUMIN-LAB1-81F073FDDCCD (1)\ADYUMIN-LAB1-81F073FDDCCD\CIRCLELIB\CIRCLE.CPP
/c /ZI /nologo /W3 /WX- /sdl /Od /Oy- /D WIN32 /D _DEBUG /D _LIB /D _UNICODE /D UNICODE /Gm /EHsc /RTC1 /MTd /GS /fp:precise /Zc:wchar_t /Zc:forScope /Yu"stdafx.h" /Fp"DEBUG\CIRCLELIB.PCH" /Fo"DEBUG\\" /Fd"DEBUG\VC120.PDB" /Gd /TP /analyze- C:\USERS\DNSSHOP\DOWNLOADS\ADYUMIN-LAB1-81F073FDDCCD (1)\ADYUMIN-LAB1-81F073FDDCCD\CIRCLELIB\CIRCLE.CPP
^C:\USERS\DNSSHOP\DOCUMENTS\VISUAL STUDIO 2013\PROJECTS\ADYUMIN-LAB1-81F073FDDCCD\CIRCLELIB\STDAFX.CPP
/c /ZI /nologo /W3 /WX- /sdl /Od /Oy- /D WIN32 /D _DEBUG /D _LIB /D _UNICODE /D UNICODE /Gm /EHsc /RTC1 /MTd /GS /fp:precise /Zc:wchar_t /Zc:forScope /Yc"stdafx.h" /Fp"DEBUG\CIRCLELIB.PCH" /Fo"DEBUG\\" /Fd"DEBUG\VC120.PDB" /Gd /TP /analyze- C:\USERS\DNSSHOP\DOCUMENTS\VISUAL STUDIO 2013\PROJECTS\ADYUMIN-LAB1-81F073FDDCCD\CIRCLELIB\STDAFX.CPP
^C:\USERS\DNSSHOP\DOCUMENTS\VISUAL STUDIO 2013\PROJECTS\ADYUMIN-LAB1-81F073FDDCCD\CIRCLELIB\CIRCLE.CPP
/c /ZI /nologo /W3 /WX- /sdl /Od /Oy- /D WIN32 /D _DEBUG /D _LIB /D _UNICODE /D UNICODE /Gm /EHsc /RTC1 /MTd /GS /fp:precise /Zc:wchar_t /Zc:forScope /Yu"stdafx.h" /Fp"DEBUG\CIRCLELIB.PCH" /Fo"DEBUG\\" /Fd"DEBUG\VC120.PDB" /Gd /TP /analyze- C:\USERS\DNSSHOP\DOCUMENTS\VISUAL STUDIO 2013\PROJECTS\ADYUMIN-LAB1-81F073FDDCCD\CIRCLELIB\CIRCLE.CPP
